[
 {
 "canonical_name": "Arabic",
 "code": "ar",
 "name": "\u0627\u0644\u0639\u0631\u0628\u064a\u0629"
 },
 {
 "canonical_name": "Bulgarian",
 "code": "bg",
 "name": "\u0411\u044a\u043b\u0433\u0430\u0440\u0441\u043a\u0438"
 },
 {
 "canonical_name": "Bosnian",
 "code": "bs",
 "name": "Bosanski"
 },
 {
 "canonical_name": "Catalan",
 "code": "ca",
 "name": "Catal\u00e0"
 },
 {
 "canonical_name": "Czech",
 "code": "cs",
 "name": "\u010ce\u0161tina"
 },
 {
 "canonical_name": "German",
 "code": "de",
 "name": "Deutsch"
 },
 {
 "canonical_name": "Greek",
 "code": "el",
 "name": "\u0395\u03bb\u03bb\u03b7\u03bd\u03b9\u03ba\u03ac"
 },
 {
 "canonical_name": "English",
 "code": "en",
 "name": "English"
 },
 {
 "canonical_name": "Esperanto",
 "code": "eo",
 "name": "Esperanto"
 },
 {
 "canonical_name": "Spanish",
 "code": "es",
 "name": "Espa\u00f1ol"
 },
 {
 "canonical_name": "Persian",
 "code": "fa",
 "name": "\u0641\u0627\u0631\u0633\u06cc"
 },
 {
 "canonical_name": "Finnish",
 "code": "fi",
 "name": "Suomi"
 },
 {
 "canonical_name": "French",
 "code": "fr",
 "name": "Fran\u00e7ais"
 },
 {
 "canonical_name": "Hebrew",
 "code": "he",
 "name": "\u05e2\u05d1\u05e8\u05d9\u05ea"
 },
 {
 "canonical_name": "Italian",
 "code": "it",
 "name": "Italiano"
 },
 {
 "canonical_name": "Japanese",
 "code": "ja",
 "name": "\u65e5\u672c\u8a9e"
 },
 {
 "canonical_name": "Korean",
 "code": "ko",
 "name": "\ud55c\uad6d\uc5b4"
 },
 {
 "canonical_name": "Norwegian (Bokm\u00e5l)",
 "code": "no",
 "name": "Norsk (Bokm\u00e5l)"
 },
 {
 "canonical_name": "Polish",
 "code": "pl",
 "name": "Polski"
 },
 {
 "canonical_name": "Portuguese",
 "code": "pt",
 "name": "Portugu\u00eas"
 },
 {
 "canonical_name": "Romanian",
 "code": "ro",
 "name": "Rom\u00e2n\u0103"
 },
 {
 "canonical_name": "Russian",
 "code": "ru",
 "name": "\u0420\u0443\u0441\u0441\u043a\u0438\u0439"
 },
 {
 "canonical_name": "Albanian",
 "code": "sq",
 "name": "Shqip"
 },
 {
 "canonical_name": "Serbian",
 "code": "sr",
 "name": "\u0421\u0440\u043f\u0441\u043a\u0438 / Srpski"
 },
 {
 "canonical_name": "Swedish",
 "code": "sv",
 "name": "Svenska"
 },
 {
 "canonical_name": "Tamil",
 "code": "ta",
 "name": "\u0ba4\u0bae\u0bbf\u0bb4\u0bcd"
 },
 {
 "canonical_name": "Turkish",
 "code": "tr",
 "name": "T\u00fcrk\u00e7e"
 },
 {
 "canonical_name": "Ukrainian",
 "code": "uk",
 "name": "\u0423\u043a\u0440\u0430\u0457\u043d\u0441\u044c\u043a\u0430"
 },
 {
 "canonical_name": "Chinese",
 "code": "zh",
 "name": "\u4e2d\u6587"
 }
 ]
