[
 {
 "canonical_name": "English",
 "code": "en",
 "name": "English"
 },
 {
 "canonical_name": "Dutch",
 "code": "nl",
 "name": "Nederlands"
 },
 {
 "canonical_name": "German",
 "code": "de",
 "name": "Deutsch"
 },
 {
 "canonical_name": "Swedish",
 "code": "sv",
 "name": "Svenska"
 },
 {
 "canonical_name": "French",
 "code": "fr",
 "name": "Français"
 },
 {
 "canonical_name": "Italian",
 "code": "it",
 "name": "Italiano"
 },
 {
 "canonical_name": "Russian",
 "code": "ru",
 "name": "Русский"
 },
 {
 "canonical_name": "Spanish",
 "code": "es",
 "name": "Español"
 },
 {
 "canonical_name": "Polish",
 "code": "pl",
 "name": "Polski"
 },
 {
 "canonical_name": "Japanese",
 "code": "ja",
 "name": "日本語"
 },
 {
 "canonical_name": "Vietnamese",
 "code": "vi",
 "name": "Tiếng Việt"
 },
 {
 "canonical_name": "Portuguese",
 "code": "pt",
 "name": "Português"
 },
 {
 "canonical_name": "Chinese",
 "code": "zh",
 "name": "中文"
 },
 {
 "canonical_name": "Ukrainian",
 "code": "uk",
 "name": "Українська"
 },
 {
 "canonical_name": "Catalan",
 "code": "ca",
 "name": "Català"
 },
 {
 "canonical_name": "Norwegian (Bokmål)",
 "code": "no",
 "name": "Norsk (Bokmål)"
 },
 {
 "canonical_name": "Persian",
 "code": "fa",
 "name": "فارسی"
 },
 {
 "canonical_name": "Finnish",
 "code": "fi",
 "name": "Suomi"
 },
 {
 "canonical_name": "Indonesian",
 "code": "id",
 "name": "Bahasa Indonesia"
 },
 {
 "canonical_name": "Czech",
 "code": "cs",
 "name": "Čeština"
 },
 {
 "canonical_name": "Korean",
 "code": "ko",
 "name": "한국어"
 },
 {
 "canonical_name": "Arabic",
 "code": "ar",
 "name": "العربية"
 },
 {
 "canonical_name": "Hungarian",
 "code": "hu",
 "name": "Magyar"
 },
 {
 "canonical_name": "Serbian",
 "code": "sr",
 "name": "Српски / Srpski"
 },
 {
 "canonical_name": "Romanian",
 "code": "ro",
 "name": "Română"
 },
 {
 "canonical_name": "Turkish",
 "code": "tr",
 "name": "Türkçe"
 },
 {
 "canonical_name": "Kazakh",
 "code": "kk",
 "name": "Қазақша"
 },
 {
 "canonical_name": "Esperanto",
 "code": "eo",
 "name": "Esperanto"
 },
 {
 "canonical_name": "Slovak",
 "code": "sk",
 "name": "Slovenčina"
 },
 {
 "canonical_name": "Danish",
 "code": "da",
 "name": "Dansk"
 },
 {
 "canonical_name": "Lithuanian",
 "code": "lt",
 "name": "Lietuvių"
 },
 {
 "canonical_name": "Bulgarian",
 "code": "bg",
 "name": "Български"
 },
 {
 "canonical_name": "Hebrew",
 "code": "he",
 "name": "עברית"
 },
 {
 "canonical_name": "Croatian",
 "code": "hr",
 "name": "Hrvatski"
 },
 {
 "canonical_name": "Slovenian",
 "code": "sl",
 "name": "Slovenščina"
 },
 {
 "canonical_name": "Estonian",
 "code": "et",
 "name": "Eesti"
 },
 {
 "canonical_name": "Volapük",
 "code": "vo",
 "name": "Volapük"
 },
 {
 "canonical_name": "Galician",
 "code": "gl",
 "name": "Galego"
 },
 {
 "canonical_name": "Simple English",
 "code": "simple",
 "name": "Simple English"
 },
 {
 "canonical_name": "Armenian",
 "code": "hy",
 "name": "Հայերեն"
 },
 {
 "canonical_name": "Latin",
 "code": "la",
 "name": "Latina"
 },
 {
 "canonical_name": "Azerbaijani",
 "code": "az",
 "name": "Azərbaycanca"
 },
 {
 "canonical_name": "Greek",
 "code": "el",
 "name": "Ελληνικά"
 },
 {
 "canonical_name": "Thai",
 "code": "th",
 "name": "ไทย"
 },
 {
 "canonical_name": "Macedonian",
 "code": "mk",
 "name": "Македонски"
 },
 {
 "canonical_name": "Belarusian",
 "code": "be",
 "name": "Беларуская"
 },
 {
 "canonical_name": "Tamil",
 "code": "ta",
 "name": "தமிழ்"
 },
 {
 "canonical_name": "Tatar",
 "code": "tt",
 "name": "Tatarça / Татарча"
 },
 {
 "canonical_name": "Telugu",
 "code": "te",
 "name": "తెలుగు"
 },
 {
 "canonical_name": "Welsh",
 "code": "cy",
 "name": "Cymraeg"
 },
 {
 "canonical_name": "Bosnian",
 "code": "bs",
 "name": "Bosanski"
 },
 {
 "canonical_name": "Luxembourgish",
 "code": "lb",
 "name": "Lëtzebuergesch"
 },
 {
 "canonical_name": "Marathi",
 "code": "mr",
 "name": "मराठी"
 },
 {
 "canonical_name": "Icelandic",
 "code": "is",
 "name": "Íslenska"
 },
 {
 "canonical_name": "Malayalam",
 "code": "ml",
 "name": "മലയാളം"
 },
 {
 "canonical_name": "Burmese",
 "code": "my",
 "name": "မြန်မာဘာသာ"
 },
 {
 "canonical_name": "Yoruba",
 "code": "yo",
 "name": "Yorùbá"
 },
 {
 "canonical_name": "Swahili",
 "code": "sw",
 "name": "Kiswahili"
 },
 {
 "canonical_name": "Low Saxon",
 "code": "nds",
 "name": "Plattdüütsch"
 },
 {
 "canonical_name": "Asturian",
 "code": "ast",
 "name": "Asturianu"
 },
 {
 "canonical_name": "Quechua",
 "code": "qu",
 "name": "Runa Simi"
 },
 {
 "canonical_name": "Alemannic",
 "code": "als",
 "name": "Alemannisch"
 },
 {
 "canonical_name": "Kannada",
 "code": "kn",
 "name": "ಕನ್ನಡ"
 },
 {
 "canonical_name": "Walloon",
 "code": "wa",
 "name": "Walon"
 },
 {
 "canonical_name": "Mongolian",
 "code": "mn",
 "name": "Монгол"
 },
 {
 "canonical_name": "Min Nan",
 "code": "zh-min-nan",
 "name": "Bân-lâm-gú"
 },
 {
 "canonical_name": "Nahuatl",
 "code": "nah",
 "name": "Nāhuatl"
 },
 {
 "canonical_name": "Sanskrit",
 "code": "sa",
 "name": "संस्कृतम्"
 },
 {
 "canonical_name": "Limburgish",
 "code": "li",
 "name": "Limburgs"
 },
 {
 "canonical_name": "Corsican",
 "code": "co",
 "name": "Corsu"
 },
 {
 "canonical_name": "Turkmen",
 "code": "tk",
 "name": "تركمن / Туркмен"
 },
 {
 "canonical_name": "Pashto",
 "code": "ps",
 "name": "پښتو"
 },
 {
 "canonical_name": "Romansh",
 "code": "rm",
 "name": "Rumantsch"
 },
 {
 "canonical_name": "Uyghur",
 "code": "ug",
 "name": "ئۇيغۇر تىلى"
 },
 {
 "canonical_name": "Anglo-Saxon",
 "code": "ang",
 "name": "Englisc"
 },
 {
 "canonical_name": "Nauruan",
 "code": "na",
 "name": "dorerin Naoero"
 },
 {
 "canonical_name": "Zhuang",
 "code": "za",
 "name": "Cuengh"
 },
 {
 "canonical_name": "Zulu",
 "code": "zu",
 "name": "isiZulu"
 },
 {
 "canonical_name": "Kashmiri",
 "code": "ks",
 "name": "कश्मीरी / كشميري"
 },
 {
 "canonical_name": "Xhosa",
 "code": "xh",
 "name": "isiXhosa"
 },
 {
 "canonical_name": "Afar",
 "code": "aa",
 "name": "Afar"
 },
 {
 "canonical_name": "Norwegian (Nynorsk)",
 "code": "nn",
 "name": "Nynorsk"
 },
 {
 "canonical_name": "Breton",
 "code": "br",
 "name": "Brezhoneg"
 },
 {
 "canonical_name": "Yiddish",
 "code": "yi",
 "name": "\u05d9\u05d9\u05b4\u05d3\u05d9\u05e9"
 },
 {
 "canonical_name": "Venetian",
 "code": "vec",
 "name": "V\u00e8neto"
 },
 {
 "canonical_name": "Sakha",
 "code": "sah",
 "name": "\u0421\u0430\u0445\u0430 \u0442\u044b\u043b\u0430 (Saxa Tyla)"
 },
 {
 "canonical_name": "Oriya",
 "code": "or",
 "name": "\u0b13\u0b5c\u0b3f\u0b06"
 },
 {
 "canonical_name": "Macedonian",
 "code": "mk",
 "name": "\u041c\u0430\u043a\u0435\u0434\u043e\u043d\u0441\u043a\u0438"
 },
 {
 "canonical_name": "Faroese",
 "code": "fo",
 "name": "F\u00f8royskt"
 },
 {
 "canonical_name": "Bengali",
 "code": "bn",
 "name": "\u09ac\u09be\u0982\u09b2\u09be"
 },
 {
 "canonical_name": "Assamese",
 "code": "as",
 "name": "\u0985\u09b8\u09ae\u09c0\u09df\u09be"
 }
 ]